[
    {
        "objetivo": "Diversidade"
    },
    {
        "objetivo": "Socializa\u00e7\u00e3o"
    },
    {
        "objetivo": "Motricidade"
    },
    {
        "objetivo": "Observa\u00e7\u00e3o"
    },
    {
        "objetivo": "Amplia\u00e7\u00e3o"
    },
    {
        "objetivo": "Limite"
    },
    {
        "objetivo": "Experimenta\u00e7\u00e3o"
    },
    {
        "objetivo": "Espa\u00e7o"
    },
    {
        "objetivo": "Tempo"
    },
    {
        "objetivo": "Transforma\u00e7\u00e3o"
    },
    {
        "objetivo": "Reconstru\u00e7\u00e3o"
    },
    {
        "objetivo": "Desconstru\u00e7\u00e3o"
    },
    {
        "objetivo": "Ousadia"
    },
    {
        "objetivo": "Foco"
    },
    {
        "objetivo": "Identidade"
    },
    {
        "objetivo": "Inclus\u00e3o"
    },
    {
        "objetivo": "Generosidade"
    },
    {
        "objetivo": "Receptividade"
    },
    {
        "objetivo": "Colabora\u00e7\u00e3o"
    },
    {
        "objetivo": "Perseveran\u00e7a"
    },
    {
        "objetivo": "Confian\u00e7a"
    },
    {
        "objetivo": "Respeito"
    },
    {
        "objetivo": "Ritmo"
    }
]