{
    "kind": "youtube#videoListResponse",
    "etag": "\"p4VTdlkQv3HQeTEaXgvLePAydmU/XwHr4Q_EslACVeFHAePnd0zV2EI\"",
    "pageInfo": {
        "totalResults": 1,
        "resultsPerPage": 1
    },
    "items": [
        {
            "kind": "youtube#video",
            "etag": "\"p4VTdlkQv3HQeTEaXgvLePAydmU/UX65UpJId8wCiFRPr0P-fS1h4PI\"",
            "id": "8_w1IHh_KK0",
            "snippet": {
                "publishedAt": "2019-12-20T22:00:00.000Z",
                "channelId": "UCYALxwppPJjYyTMEwwEcNCQ",
                "title": "passei a VIRADA com o BOY e LEVEI UM SUSTO // Turma-Feira #084",
                "description": "Entre cococos e BLUEEERH (ânsia) a turma-feira volta com as histórias mais ABSURDAS da internet.\n\n• Link do Discord: https://discord.gg/lubatv\n• STREAM de segunda à sexta às 15h: http://twich.tv/lubatv\n• Seja um MEMBRO: https://www.youtube.com/LubaTV/join\n• Envie seu MEME: http://www.reddit.com/r/nhaa\n• Canal de Gameplays: http://www.youtube.com/lubatvgames\n\n#LubaTV #Luba #Turmafeira",
                "thumbnails": {
                    "default": {
                        "url": "https://i.ytimg.com/vi/8_w1IHh_KK0/default.jpg",
                        "width": 120,
                        "height": 90
                    },
                    "medium": {
                        "url": "https://i.ytimg.com/vi/8_w1IHh_KK0/mqdefault.jpg",
                        "width": 320,
                        "height": 180
                    },
                    "high": {
                        "url": "https://i.ytimg.com/vi/8_w1IHh_KK0/hqdefault.jpg",
                        "width": 480,
                        "height": 360
                    },
                    "standard": {
                        "url": "https://i.ytimg.com/vi/8_w1IHh_KK0/sddefault.jpg",
                        "width": 640,
                        "height": 480
                    },
                    "maxres": {
                        "url": "https://i.ytimg.com/vi/8_w1IHh_KK0/maxresdefault.jpg",
                        "width": 1280,
                        "height": 720
                    }
                },
                "channelTitle": "LubaTV",
                "tags": [
                    "luba",
                    "lubatv",
                    "videos engraçados",
                    "humor",
                    "comedia",
                    "vlog",
                    "histórias",
                    "ano novo",
                    "natal",
                    "virada",
                    "micos",
                    "cococos",
                    "vexames",
                    "dates",
                    "crushs",
                    "2020"
                ],
                "categoryId": "22",
                "liveBroadcastContent": "none",
                "localized": {
                    "title": "passei a VIRADA com o BOY e LEVEI UM SUSTO // Turma-Feira #084",
                    "description": "Entre cococos e BLUEEERH (ânsia) a turma-feira volta com as histórias mais ABSURDAS da internet.\n\n• Link do Discord: https://discord.gg/lubatv\n• STREAM de segunda à sexta às 15h: http://twich.tv/lubatv\n• Seja um MEMBRO: https://www.youtube.com/LubaTV/join\n• Envie seu MEME: http://www.reddit.com/r/nhaa\n• Canal de Gameplays: http://www.youtube.com/lubatvgames\n\n#LubaTV #Luba #Turmafeira"
                },
                "defaultAudioLanguage": "pt"
            }
        }
    ]
}