[
    {
        "idMaterial": "1",
        "Material": "acamur\u00e7ados",
        "Descricao": null
    },
    {
        "idMaterial": "2",
        "Material": "chapa de acr\u00edlico",
        "Descricao": ""
    },
    {
        "idMaterial": "6",
        "Material": "\u00e1gua raz",
        "Descricao": ""
    },
    {
        "idMaterial": "7",
        "Material": "alicate de corte",
        "Descricao": null
    },
    {
        "idMaterial": "8",
        "Material": "anilinas",
        "Descricao": null
    },
    {
        "idMaterial": "12",
        "Material": "arame de alum\u00ednio",
        "Descricao": null
    },
    {
        "idMaterial": "13",
        "Material": "arame galvanizado male\u00e1vel",
        "Descricao": null
    },
    {
        "idMaterial": "14",
        "Material": "areia",
        "Descricao": null
    },
    {
        "idMaterial": "15",
        "Material": "areia colorida",
        "Descricao": null
    },
    {
        "idMaterial": "17",
        "Material": "argila",
        "Descricao": null
    },
    {
        "idMaterial": "21",
        "Material": "barbante",
        "Descricao": null
    },
    {
        "idMaterial": "25",
        "Material": "bast\u00f5es",
        "Descricao": "L\u00e1pis de cera, past\u00e9is oleosos, past\u00e9is secos"
    },
    {
        "idMaterial": "28",
        "Material": "massa de biscuit",
        "Descricao": "Massa de modelar que endurece"
    },
    {
        "idMaterial": "29",
        "Material": "bolas de encher pequenas",
        "Descricao": "Bolas de festa, tamb\u00e9m chamadas de bechigas"
    },
    {
        "idMaterial": "31",
        "Material": "cabos de pinc\u00e9is",
        "Descricao": null
    },
    {
        "idMaterial": "34",
        "Material": "caf\u00e9 bem forte",
        "Descricao": null
    },
    {
        "idMaterial": "38",
        "Material": "caneta esferogr\u00e1fica preta",
        "Descricao": null
    },
    {
        "idMaterial": "39",
        "Material": "canetas para tecido",
        "Descricao": "Encontradas em papelarias"
    },
    {
        "idMaterial": "40",
        "Material": "cartolinas coloridas",
        "Descricao": null
    },
    {
        "idMaterial": "42",
        "Material": "cascas de \u00e1rvore",
        "Descricao": ""
    },
    {
        "idMaterial": "43",
        "Material": "cascas de ovos",
        "Descricao": null
    },
    {
        "idMaterial": "44",
        "Material": "cavaletes de madeira",
        "Descricao": null
    },
    {
        "idMaterial": "45",
        "Material": "cds usados",
        "Descricao": null
    },
    {
        "idMaterial": "46",
        "Material": "cera de ch\u00e3o",
        "Descricao": null
    },
    {
        "idMaterial": "49",
        "Material": "cimento",
        "Descricao": null
    },
    {
        "idMaterial": "51",
        "Material": "cola branca",
        "Descricao": null
    },
    {
        "idMaterial": "52",
        "Material": "cola de isopor (com bico)",
        "Descricao": null
    },
    {
        "idMaterial": "55",
        "Material": "cola em bast\u00e3o",
        "Descricao": null
    },
    {
        "idMaterial": "62",
        "Material": "colheres de pedreiro",
        "Descricao": null
    },
    {
        "idMaterial": "63",
        "Material": "compensado",
        "Descricao": null
    },
    {
        "idMaterial": "64",
        "Material": "compressor",
        "Descricao": null
    },
    {
        "idMaterial": "66",
        "Material": "cotonetes",
        "Descricao": "Artigo de farm\u00e1cia, mas podem ser fabricados com palito de churrasco e algod\u00e3o"
    },
    {
        "idMaterial": "68",
        "Material": "creme hidratante",
        "Descricao": "Artigo de farm\u00e1cia"
    },
    {
        "idMaterial": "70",
        "Material": "duratex",
        "Descricao": null
    },
    {
        "idMaterial": "71",
        "Material": "duratex com pva",
        "Descricao": null
    },
    {
        "idMaterial": "72",
        "Material": "duratex pintados de preto",
        "Descricao": null
    },
    {
        "idMaterial": "75",
        "Material": "elementos do cotidiano",
        "Descricao": "chaves, celulares velhos, correntes, parafusos grandes, tesouras velhas, canetas, fios de celular, pentes, bot\u00f5es grandes..."
    },
    {
        "idMaterial": "76",
        "Material": "esp\u00e1tula",
        "Descricao": null
    },
    {
        "idMaterial": "78",
        "Material": "esponjas",
        "Descricao": "Artigo de cozinha"
    },
    {
        "idMaterial": "80",
        "Material": "estilete",
        "Descricao": ""
    },
    {
        "idMaterial": "81",
        "Material": "estopa",
        "Descricao": null
    },
    {
        "idMaterial": "82",
        "Material": "faca",
        "Descricao": null
    },
    {
        "idMaterial": "83",
        "Material": "faquinhas sem ponta",
        "Descricao": ""
    },
    {
        "idMaterial": "84",
        "Material": "ferramentas de modelagem",
        "Descricao": ""
    },
    {
        "idMaterial": "85",
        "Material": "fio de nylon",
        "Descricao": null
    },
    {
        "idMaterial": "86",
        "Material": "fita adesiva",
        "Descricao": null
    },
    {
        "idMaterial": "88",
        "Material": "flores secas",
        "Descricao": null
    },
    {
        "idMaterial": "89",
        "Material": "folhas",
        "Descricao": null
    },
    {
        "idMaterial": "90",
        "Material": "folhas de jornal",
        "Descricao": null
    },
    {
        "idMaterial": "92",
        "Material": "forma de ovo",
        "Descricao": ""
    },
    {
        "idMaterial": "93",
        "Material": "forma geom\u00e9trica",
        "Descricao": null
    },
    {
        "idMaterial": "94",
        "Material": "f\u00f3rmica",
        "Descricao": null
    },
    {
        "idMaterial": "95",
        "Material": "galhos",
        "Descricao": null
    },
    {
        "idMaterial": "96",
        "Material": "garrafa",
        "Descricao": null
    },
    {
        "idMaterial": "97",
        "Material": "gesso estuque",
        "Descricao": ""
    },
    {
        "idMaterial": "98",
        "Material": "gesso cr\u00e9e",
        "Descricao": null
    },
    {
        "idMaterial": "99",
        "Material": "giz colorido",
        "Descricao": null
    },
    {
        "idMaterial": "100",
        "Material": "glicerina",
        "Descricao": null
    },
    {
        "idMaterial": "101",
        "Material": "goivas",
        "Descricao": null
    },
    {
        "idMaterial": "102",
        "Material": "grafite em p\u00f3",
        "Descricao": null
    },
    {
        "idMaterial": "103",
        "Material": "grampeador",
        "Descricao": null
    },
    {
        "idMaterial": "104",
        "Material": "grude de maisena",
        "Descricao": null
    },
    {
        "idMaterial": "105",
        "Material": "guache preto",
        "Descricao": null
    },
    {
        "idMaterial": "106",
        "Material": "isopor",
        "Descricao": null
    },
    {
        "idMaterial": "108",
        "Material": "jornal",
        "Descricao": null
    },
    {
        "idMaterial": "109",
        "Material": "juta",
        "Descricao": null
    },
    {
        "idMaterial": "113",
        "Material": "l\u00e1pis cera branco",
        "Descricao": null
    },
    {
        "idMaterial": "114",
        "Material": "l\u00e1pis cera colorido",
        "Descricao": null
    },
    {
        "idMaterial": "115",
        "Material": "l\u00e1pis cera preto",
        "Descricao": null
    },
    {
        "idMaterial": "117",
        "Material": "l\u00e1pis cera",
        "Descricao": ""
    },
    {
        "idMaterial": "118",
        "Material": "l\u00e1pis de cor",
        "Descricao": null
    },
    {
        "idMaterial": "120",
        "Material": "l\u00e1pis de cor aquarel\u00e1vel",
        "Descricao": null
    },
    {
        "idMaterial": "122",
        "Material": "l\u00e1pis grafite 6B",
        "Descricao": ""
    },
    {
        "idMaterial": "123",
        "Material": "linha de pesca",
        "Descricao": null
    },
    {
        "idMaterial": "124",
        "Material": "linhas",
        "Descricao": null
    },
    {
        "idMaterial": "125",
        "Material": "luvas",
        "Descricao": null
    },
    {
        "idMaterial": "126",
        "Material": "luz (holofote)",
        "Descricao": null
    },
    {
        "idMaterial": "127",
        "Material": "lysoform",
        "Descricao": null
    },
    {
        "idMaterial": "128",
        "Material": "madeira",
        "Descricao": null
    },
    {
        "idMaterial": "129",
        "Material": "maisena",
        "Descricao": null
    },
    {
        "idMaterial": "130",
        "Material": "martelos",
        "Descricao": null
    },
    {
        "idMaterial": "131",
        "Material": "massa corrida",
        "Descricao": null
    },
    {
        "idMaterial": "134",
        "Material": "massinha de modelar",
        "Descricao": null
    },
    {
        "idMaterial": "135",
        "Material": "materiais gr\u00e1ficos",
        "Descricao": "L\u00e1pis Grafite,\r\nCarv\u00e3o,\r\nL\u00e1pis cera,\r\nL\u00e1pis de cor,\r\nPastel seco,\r\nGiz,\r\nPastel Oleoso,\r\nCaneta Pilot\r\n"
    },
    {
        "idMaterial": "136",
        "Material": "materiais gr\u00e1ficos e pict\u00f3ricos",
        "Descricao": ""
    },
    {
        "idMaterial": "137",
        "Material": "material para gravura",
        "Descricao": ""
    },
    {
        "idMaterial": "138",
        "Material": "milho",
        "Descricao": null
    },
    {
        "idMaterial": "139",
        "Material": "miolos de papel higi\u00eanico",
        "Descricao": null
    },
    {
        "idMaterial": "140",
        "Material": "molduras retr\u00e1teis",
        "Descricao": null
    },
    {
        "idMaterial": "141",
        "Material": "nanquim colorido",
        "Descricao": null
    },
    {
        "idMaterial": "142",
        "Material": "nanquim preto",
        "Descricao": null
    },
    {
        "idMaterial": "144",
        "Material": "objetos do cotidiano",
        "Descricao": null
    },
    {
        "idMaterial": "146",
        "Material": "\u00f3leo mineral",
        "Descricao": null
    },
    {
        "idMaterial": "151",
        "Material": "pap\u00e9is de cor",
        "Descricao": ""
    },
    {
        "idMaterial": "153",
        "Material": "pap\u00e9is fibrosos",
        "Descricao": null
    },
    {
        "idMaterial": "154",
        "Material": "pap\u00e9is pretos",
        "Descricao": null
    },
    {
        "idMaterial": "156",
        "Material": "papel alum\u00ednio",
        "Descricao": null
    },
    {
        "idMaterial": "157",
        "Material": "papel branco",
        "Descricao": null
    },
    {
        "idMaterial": "158",
        "Material": "papel kraft",
        "Descricao": ""
    },
    {
        "idMaterial": "159",
        "Material": "papel de seda",
        "Descricao": ""
    },
    {
        "idMaterial": "160",
        "Material": "papel fino",
        "Descricao": null
    },
    {
        "idMaterial": "163",
        "Material": "papel\u00e3o",
        "Descricao": null
    },
    {
        "idMaterial": "164",
        "Material": "papel mach\u00ea",
        "Descricao": ""
    },
    {
        "idMaterial": "165",
        "Material": "parafina",
        "Descricao": null
    },
    {
        "idMaterial": "167",
        "Material": "passepartout",
        "Descricao": ""
    },
    {
        "idMaterial": "170",
        "Material": "pastel oleoso",
        "Descricao": null
    },
    {
        "idMaterial": "171",
        "Material": "pastel seco",
        "Descricao": null
    },
    {
        "idMaterial": "173",
        "Material": "peda\u00e7o de boneca",
        "Descricao": null
    },
    {
        "idMaterial": "175",
        "Material": "peda\u00e7os de barbantes",
        "Descricao": null
    },
    {
        "idMaterial": "176",
        "Material": "peda\u00e7os de ferro de obra",
        "Descricao": null
    },
    {
        "idMaterial": "177",
        "Material": "pedras",
        "Descricao": null
    },
    {
        "idMaterial": "178",
        "Material": "peneira",
        "Descricao": null
    },
    {
        "idMaterial": "179",
        "Material": "pigmentos",
        "Descricao": ""
    },
    {
        "idMaterial": "182",
        "Material": "pinc\u00e9is de pelo",
        "Descricao": null
    },
    {
        "idMaterial": "187",
        "Material": "placa de cer\u00e2mica",
        "Descricao": ""
    },
    {
        "idMaterial": "189",
        "Material": "placa de piso cer\u00e2mico liso",
        "Descricao": ""
    },
    {
        "idMaterial": "190",
        "Material": "placa de vidro",
        "Descricao": null
    },
    {
        "idMaterial": "192",
        "Material": "pl\u00e1stico branco",
        "Descricao": null
    },
    {
        "idMaterial": "193",
        "Material": "pl\u00e1stico transparente",
        "Descricao": null
    },
    {
        "idMaterial": "196",
        "Material": "potes pl\u00e1sticos",
        "Descricao": null
    },
    {
        "idMaterial": "197",
        "Material": "pregos",
        "Descricao": null
    },
    {
        "idMaterial": "198",
        "Material": "querosene",
        "Descricao": null
    },
    {
        "idMaterial": "199",
        "Material": "r\u00e9gua",
        "Descricao": null
    },
    {
        "idMaterial": "200",
        "Material": "restos de tecido",
        "Descricao": null
    },
    {
        "idMaterial": "201",
        "Material": "revistas",
        "Descricao": null
    },
    {
        "idMaterial": "202",
        "Material": "rolinhos de espuma",
        "Descricao": null
    },
    {
        "idMaterial": "204",
        "Material": "rolo de borracha",
        "Descricao": null
    },
    {
        "idMaterial": "205",
        "Material": "rolo de espuma",
        "Descricao": null
    },
    {
        "idMaterial": "207",
        "Material": "rolo de pastel",
        "Descricao": null
    },
    {
        "idMaterial": "209",
        "Material": "sab\u00e3o",
        "Descricao": null
    },
    {
        "idMaterial": "210",
        "Material": "sarja",
        "Descricao": null
    },
    {
        "idMaterial": "211",
        "Material": "seixos rolados",
        "Descricao": null
    },
    {
        "idMaterial": "212",
        "Material": "solvente",
        "Descricao": null
    },
    {
        "idMaterial": "213",
        "Material": "spray fixador",
        "Descricao": null
    },
    {
        "idMaterial": "215",
        "Material": "sucatas",
        "Descricao": null
    },
    {
        "idMaterial": "216",
        "Material": "superf\u00edcie de duratex",
        "Descricao": null
    },
    {
        "idMaterial": "217",
        "Material": "tecido",
        "Descricao": null
    },
    {
        "idMaterial": "219",
        "Material": "tela",
        "Descricao": null
    },
    {
        "idMaterial": "220",
        "Material": "telha",
        "Descricao": null
    },
    {
        "idMaterial": "221",
        "Material": "t\u00eampera de ovo",
        "Descricao": null
    },
    {
        "idMaterial": "222",
        "Material": "terra",
        "Descricao": null
    },
    {
        "idMaterial": "226",
        "Material": "tijolos furados",
        "Descricao": null
    },
    {
        "idMaterial": "227",
        "Material": "tinta \u00e0 base d\u2019\u00e1gua",
        "Descricao": null
    },
    {
        "idMaterial": "228",
        "Material": "tinta a \u00f3leo",
        "Descricao": ""
    },
    {
        "idMaterial": "229",
        "Material": "tinta acr\u00edlica",
        "Descricao": null
    },
    {
        "idMaterial": "230",
        "Material": "tinta aguada (aquarela)",
        "Descricao": ""
    },
    {
        "idMaterial": "233",
        "Material": "tinta para tecido",
        "Descricao": null
    },
    {
        "idMaterial": "234",
        "Material": "tinta t\u00eampera de ovo",
        "Descricao": null
    },
    {
        "idMaterial": "240",
        "Material": "tintas guache coloridas",
        "Descricao": null
    },
    {
        "idMaterial": "241",
        "Material": "tinta guache preta",
        "Descricao": ""
    },
    {
        "idMaterial": "242",
        "Material": "tintas variadas",
        "Descricao": null
    },
    {
        "idMaterial": "243",
        "Material": "toalhas de m\u00e3o",
        "Descricao": null
    },
    {
        "idMaterial": "245",
        "Material": "torno",
        "Descricao": null
    },
    {
        "idMaterial": "246",
        "Material": "torquez para corte",
        "Descricao": null
    },
    {
        "idMaterial": "248",
        "Material": "varas de ferro",
        "Descricao": null
    },
    {
        "idMaterial": "256",
        "Material": "desbastadores",
        "Descricao": "Ferramenta, comumente de madeira e fio de a\u00e7o, utilizada por escultores. "
    },
    {
        "idMaterial": "258",
        "Material": "temas pr\u00e9-produzidos",
        "Descricao": ""
    },
    {
        "idMaterial": "261",
        "Material": "gases gessadas",
        "Descricao": ""
    },
    {
        "idMaterial": "263",
        "Material": "bico de pena",
        "Descricao": ""
    },
    {
        "idMaterial": "265",
        "Material": "bolas ocas de isopor",
        "Descricao": "Encontradas em papelarias e lojas de artigos de festa"
    },
    {
        "idMaterial": "267",
        "Material": "camiseta branca",
        "Descricao": null
    },
    {
        "idMaterial": "268",
        "Material": "cartolina preta",
        "Descricao": null
    },
    {
        "idMaterial": "271",
        "Material": "carv\u00e3o",
        "Descricao": null
    },
    {
        "idMaterial": "273",
        "Material": "cera virgem",
        "Descricao": "Encontra em lojas de tintas e de constru\u00e7\u00e3o"
    },
    {
        "idMaterial": "277",
        "Material": "chapa de vidro",
        "Descricao": null
    },
    {
        "idMaterial": "278",
        "Material": "madeira como suporte",
        "Descricao": ""
    },
    {
        "idMaterial": "280",
        "Material": "composi\u00e7\u00f5es de modelos com objetos",
        "Descricao": null
    },
    {
        "idMaterial": "281",
        "Material": "concreto celular",
        "Descricao": "Material leve vendido em blocos e encontrado em lojas de constru\u00e7\u00e3o"
    },
    {
        "idMaterial": "283",
        "Material": "duratex recortado",
        "Descricao": null
    },
    {
        "idMaterial": "286",
        "Material": "elementos da natureza",
        "Descricao": "Folhas, galhos, cascas de \u00e1rvore, ra\u00edzes, pedras, sisal, penas, etc"
    },
    {
        "idMaterial": "288",
        "Material": "embalagens (caixas) de leite e sucos",
        "Descricao": null
    },
    {
        "idMaterial": "289",
        "Material": "espelhos individuais",
        "Descricao": "Existem alguns bem simples em geral com molduras de pl\u00e1stico na cor laranja"
    },
    {
        "idMaterial": "290",
        "Material": "estecas",
        "Descricao": null
    },
    {
        "idMaterial": "291",
        "Material": "e.v.a",
        "Descricao": ""
    },
    {
        "idMaterial": "294",
        "Material": "formas simples",
        "Descricao": null
    },
    {
        "idMaterial": "295",
        "Material": "c\u00e2mera fotogr\u00e1fica do celular",
        "Descricao": ""
    },
    {
        "idMaterial": "296",
        "Material": "fragmentos (cer\u00e2mica)",
        "Descricao": ""
    },
    {
        "idMaterial": "297",
        "Material": "g\u00eaneros pr\u00e9 determinados",
        "Descricao": null
    },
    {
        "idMaterial": "298",
        "Material": "guache",
        "Descricao": null
    },
    {
        "idMaterial": "299",
        "Material": "l\u00e1pis de cor branco",
        "Descricao": null
    },
    {
        "idMaterial": "302",
        "Material": "l\u00e3s coloridas",
        "Descricao": ""
    },
    {
        "idMaterial": "303",
        "Material": "len\u00e7ol branco",
        "Descricao": null
    },
    {
        "idMaterial": "306",
        "Material": "massa de macarr\u00e3o do tipo penne",
        "Descricao": null
    },
    {
        "idMaterial": "307",
        "Material": "massa pl\u00e1stica",
        "Descricao": null
    },
    {
        "idMaterial": "309",
        "Material": "mdf",
        "Descricao": null
    },
    {
        "idMaterial": "310",
        "Material": "mistura (\u00e1lcool e nanquim)",
        "Descricao": null
    },
    {
        "idMaterial": "312",
        "Material": "objetos conhecidos (telhas)",
        "Descricao": ""
    },
    {
        "idMaterial": "313",
        "Material": "objetos pessoais",
        "Descricao": null
    },
    {
        "idMaterial": "314",
        "Material": "ovo",
        "Descricao": null
    },
    {
        "idMaterial": "315",
        "Material": "ovos de cartolina",
        "Descricao": null
    },
    {
        "idMaterial": "316",
        "Material": "palavras para sorteio de partes do corpo",
        "Descricao": null
    },
    {
        "idMaterial": "317",
        "Material": "palitos de churrasco",
        "Descricao": null
    },
    {
        "idMaterial": "319",
        "Material": "pap\u00e9is de desenho (40k)",
        "Descricao": null
    },
    {
        "idMaterial": "320",
        "Material": "pap\u00e9is encorpados",
        "Descricao": null
    },
    {
        "idMaterial": "322",
        "Material": "papel \u201cparan\u00e1\u201d",
        "Descricao": null
    },
    {
        "idMaterial": "326",
        "Material": "papel higi\u00eanico barato",
        "Descricao": null
    },
    {
        "idMaterial": "331",
        "Material": "peda\u00e7os de cartolinas coloridas",
        "Descricao": null
    },
    {
        "idMaterial": "332",
        "Material": "peda\u00e7os de madeira",
        "Descricao": null
    },
    {
        "idMaterial": "335",
        "Material": "placa de duratex",
        "Descricao": ""
    },
    {
        "idMaterial": "336",
        "Material": "placa de madeira",
        "Descricao": null
    },
    {
        "idMaterial": "338",
        "Material": "plaquinha de mdf",
        "Descricao": null
    },
    {
        "idMaterial": "340",
        "Material": "pap\u00e9is brancos",
        "Descricao": ""
    },
    {
        "idMaterial": "341",
        "Material": "recortes de cartolina",
        "Descricao": null
    },
    {
        "idMaterial": "342",
        "Material": "recortes coloridos de cartolina ",
        "Descricao": ""
    },
    {
        "idMaterial": "343",
        "Material": "recortes de revistas e jornais",
        "Descricao": null
    },
    {
        "idMaterial": "345",
        "Material": "suporte de madeira",
        "Descricao": null
    },
    {
        "idMaterial": "350",
        "Material": "tijolos maci\u00e7os",
        "Descricao": null
    },
    {
        "idMaterial": "351",
        "Material": "tinta para gravura (base de \u00e1gua)",
        "Descricao": ""
    },
    {
        "idMaterial": "357",
        "Material": "vendas para os olhos",
        "Descricao": null
    },
    {
        "idMaterial": "358",
        "Material": "verniz",
        "Descricao": null
    },
    {
        "idMaterial": "360",
        "Material": "giz branco",
        "Descricao": ""
    },
    {
        "idMaterial": "361",
        "Material": "fita crepe",
        "Descricao": ""
    },
    {
        "idMaterial": "363",
        "Material": "tintas",
        "Descricao": "Guache, Acr\u00edlica, Aquarela, Nanquim, tinta \u00e0 \u00f3leo"
    },
    {
        "idMaterial": "364",
        "Material": "caneta pilot",
        "Descricao": ""
    },
    {
        "idMaterial": "366",
        "Material": "tinta preta",
        "Descricao": ""
    },
    {
        "idMaterial": "367",
        "Material": "tinta azul",
        "Descricao": ""
    },
    {
        "idMaterial": "368",
        "Material": "tinta vermelha",
        "Descricao": ""
    },
    {
        "idMaterial": "369",
        "Material": "tinta amarela",
        "Descricao": ""
    },
    {
        "idMaterial": "370",
        "Material": "tinta branca",
        "Descricao": ""
    },
    {
        "idMaterial": "371",
        "Material": "cartolina branca em formato circular",
        "Descricao": ""
    },
    {
        "idMaterial": "374",
        "Material": "cartolina branca",
        "Descricao": ""
    },
    {
        "idMaterial": "375",
        "Material": "material texturado",
        "Descricao": "folhas, flores secas, pap\u00e9is ou pl\u00e1sticos corrugados, lixas, tecidos, papel alum\u00ednio"
    },
    {
        "idMaterial": "376",
        "Material": "l\u00e2mpada",
        "Descricao": ""
    },
    {
        "idMaterial": "377",
        "Material": "toucas pl\u00e1sticas",
        "Descricao": ""
    },
    {
        "idMaterial": "378",
        "Material": "purpurinas",
        "Descricao": ""
    },
    {
        "idMaterial": "379",
        "Material": "\u00e1gua",
        "Descricao": ""
    },
    {
        "idMaterial": "381",
        "Material": "\u00e1lcool absoluto com nankim",
        "Descricao": ""
    },
    {
        "idMaterial": "382",
        "Material": "tela de arame",
        "Descricao": ""
    },
    {
        "idMaterial": "384",
        "Material": "eixo de palito de churrasco",
        "Descricao": "Palito de churrasco fixado sobre pequeno peda\u00e7o de argila"
    },
    {
        "idMaterial": "386",
        "Material": "papel celofane",
        "Descricao": ""
    },
    {
        "idMaterial": "387",
        "Material": "papel vegetal",
        "Descricao": ""
    },
    {
        "idMaterial": "388",
        "Material": "madeira previamente pintada de branco",
        "Descricao": ""
    },
    {
        "idMaterial": "389",
        "Material": "materiais para colagem",
        "Descricao": "Revistas, pap\u00e9is coloridos, tecidos, barbante, l\u00e3, palitos, etc obs: \u00e0 escolha"
    },
    {
        "idMaterial": "390",
        "Material": "fichas com cenas ",
        "Descricao": "no elevador \/ na praia \/ no \u00f4nibus \/ no m\u00e9dico \/ no mercado \/ no atelier \/ no baile... etc..."
    },
    {
        "idMaterial": "391",
        "Material": "caixinha com etiqueta",
        "Descricao": ""
    },
    {
        "idMaterial": "392",
        "Material": "adere\u00e7os",
        "Descricao": " "
    },
    {
        "idMaterial": "393",
        "Material": "espelho",
        "Descricao": ""
    },
    {
        "idMaterial": "394",
        "Material": "celular",
        "Descricao": ""
    },
    {
        "idMaterial": "395",
        "Material": "fotos impressas",
        "Descricao": ""
    },
    {
        "idMaterial": "396",
        "Material": "tesouras",
        "Descricao": ""
    },
    {
        "idMaterial": "398",
        "Material": "cartolinas",
        "Descricao": ""
    },
    {
        "idMaterial": "399",
        "Material": "papel branco A4",
        "Descricao": ""
    },
    {
        "idMaterial": "400",
        "Material": "passepartout preto",
        "Descricao": ""
    },
    {
        "idMaterial": "401",
        "Material": "papel A3",
        "Descricao": ""
    },
    {
        "idMaterial": "402",
        "Material": "cartolina preta com orif\u00edcio",
        "Descricao": ""
    },
    {
        "idMaterial": "403",
        "Material": "pinc\u00e9is",
        "Descricao": ""
    },
    {
        "idMaterial": "405",
        "Material": "material para colagem",
        "Descricao": ""
    },
    {
        "idMaterial": "406",
        "Material": "nenhum",
        "Descricao": ""
    },
    {
        "idMaterial": "408",
        "Material": "etiquetas",
        "Descricao": ""
    },
    {
        "idMaterial": "409",
        "Material": "fixador para carv\u00e3o",
        "Descricao": ""
    },
    {
        "idMaterial": "410",
        "Material": "papel Kraft a metro",
        "Descricao": ""
    },
    {
        "idMaterial": "411",
        "Material": "lanterna de celular",
        "Descricao": ""
    },
    {
        "idMaterial": "412",
        "Material": "barbotina",
        "Descricao": ""
    },
    {
        "idMaterial": "416",
        "Material": "balde ",
        "Descricao": ""
    },
    {
        "idMaterial": "417",
        "Material": "caixa de papel\u00e3o",
        "Descricao": ""
    },
    {
        "idMaterial": "418",
        "Material": "durepox",
        "Descricao": ""
    },
    {
        "idMaterial": "419",
        "Material": "material para concreto celular",
        "Descricao": ""
    },
    {
        "idMaterial": "420",
        "Material": "aquarela",
        "Descricao": ""
    },
    {
        "idMaterial": "421",
        "Material": "fotoc\u00f3pias",
        "Descricao": ""
    },
    {
        "idMaterial": "422",
        "Material": "grosas",
        "Descricao": ""
    },
    {
        "idMaterial": "424",
        "Material": "guaches nas cores prim\u00e1rias",
        "Descricao": ""
    },
    {
        "idMaterial": "425",
        "Material": "peda\u00e7os de mdf",
        "Descricao": ""
    },
    {
        "idMaterial": "426",
        "Material": "cola quente",
        "Descricao": ""
    },
    {
        "idMaterial": "427",
        "Material": "luvas de raspas de couro",
        "Descricao": ""
    },
    {
        "idMaterial": "428",
        "Material": "recortes de cartolina preta",
        "Descricao": ""
    },
    {
        "idMaterial": "429",
        "Material": "bandagens gessadas",
        "Descricao": ""
    },
    {
        "idMaterial": "430",
        "Material": "m\u00e1scaras de gesso",
        "Descricao": ""
    },
    {
        "idMaterial": "431",
        "Material": "palitos de sorvete",
        "Descricao": ""
    },
    {
        "idMaterial": "432",
        "Material": "ferro roli\u00e7o de 3\/16",
        "Descricao": ""
    },
    {
        "idMaterial": "433",
        "Material": "materiais pict\u00f3ricos",
        "Descricao": ""
    },
    {
        "idMaterial": "434",
        "Material": "peda\u00e7os de pl\u00e1stico",
        "Descricao": ""
    },
    {
        "idMaterial": "435",
        "Material": "recortes de tecido",
        "Descricao": ""
    },
    {
        "idMaterial": "436",
        "Material": "rolo de gravura (borracha)",
        "Descricao": ""
    },
    {
        "idMaterial": "437",
        "Material": "canetas esferogr\u00e1ficas pretas e coloridas",
        "Descricao": ""
    },
    {
        "idMaterial": "438",
        "Material": "caneta pilot preta",
        "Descricao": ""
    },
    {
        "idMaterial": "439",
        "Material": "piso cer\u00e2mico branco",
        "Descricao": ""
    },
    {
        "idMaterial": "440",
        "Material": "azulejos brancos",
        "Descricao": ""
    },
    {
        "idMaterial": "441",
        "Material": "lin\u00f3leo ou similar",
        "Descricao": ""
    },
    {
        "idMaterial": "443",
        "Material": "tinta para rosto",
        "Descricao": ""
    },
    {
        "idMaterial": "444",
        "Material": "massa caseira para pintura a dedos",
        "Descricao": ""
    },
    {
        "idMaterial": "445",
        "Material": "massa caseira de papel mach\u00ea",
        "Descricao": ""
    },
    {
        "idMaterial": "446",
        "Material": "pigmentos nas cores prim\u00e1rias",
        "Descricao": ""
    },
    {
        "idMaterial": "447",
        "Material": "pigmento preto",
        "Descricao": ""
    },
    {
        "idMaterial": "448",
        "Material": "pigmento branco (alvaiade)",
        "Descricao": ""
    },
    {
        "idMaterial": "449",
        "Material": "pap\u00e9is variados",
        "Descricao": ""
    },
    {
        "idMaterial": "450",
        "Material": "barbantes coloridos",
        "Descricao": ""
    },
    {
        "idMaterial": "451",
        "Material": "papel crepon",
        "Descricao": ""
    },
    {
        "idMaterial": "452",
        "Material": "\u00e1lcool",
        "Descricao": ""
    },
    {
        "idMaterial": "453",
        "Material": "verruma",
        "Descricao": "ferramenta utilizada por marceneiros para fazer buracos na madeira"
    },
    {
        "idMaterial": "454",
        "Material": "arame de cobre",
        "Descricao": ""
    },
    {
        "idMaterial": "455",
        "Material": "alfinetes",
        "Descricao": ""
    },
    {
        "idMaterial": "456",
        "Material": "contas e canutilhos e outros para bijuteria",
        "Descricao": ""
    },
    {
        "idMaterial": "457",
        "Material": "material comercial para bijuterias",
        "Descricao": ""
    },
    {
        "idMaterial": "458",
        "Material": "\u00e1lcool absoluto",
        "Descricao": ""
    },
    {
        "idMaterial": "459",
        "Material": "sementes",
        "Descricao": ""
    },
    {
        "idMaterial": "460",
        "Material": "dicion\u00e1rio",
        "Descricao": ""
    },
    {
        "idMaterial": "461",
        "Material": "Torno para cer\u00e2mica",
        "Descricao": ""
    },
    {
        "idMaterial": "463",
        "Material": "pap\u00e9is com absorv\u00eancia",
        "Descricao": ""
    },
    {
        "idMaterial": "464",
        "Material": "frasco com bico dosador",
        "Descricao": ""
    },
    {
        "idMaterial": "465",
        "Material": "Papel toalha",
        "Descricao": ""
    },
    {
        "idMaterial": "466",
        "Material": "borracha",
        "Descricao": ""
    }
]