[
    {
        "IdTipo": "1",
        "Tipo": "pl\u00e1stica"
    },
    {
        "IdTipo": "2",
        "Tipo": "corporal"
    },
    {
        "IdTipo": "3",
        "Tipo": "po\u00e9tica"
    },
    {
        "IdTipo": "4",
        "Tipo": "pl\u00e1stica\/corporal"
    }
]